{
"type": "FeatureCollection",
"features": [
{ "type": "Feature", "properties": { "ix": 3 }, "geometry": { "type": "LineString", "coordinates": [ [ -73.99807, 40.73037 ], [ -73.99802, 40.73035 ], [ -73.99795, 40.73042 ], [ -73.99784, 40.73046 ], [ -73.99773, 40.73052 ], [ -73.99769, 40.73055 ], [ -73.99771, 40.73057 ], [ -73.99774, 40.73059 ], [ -73.99778, 40.73062 ], [ -73.9978, 40.73064 ], [ -73.99782, 40.73067 ], [ -73.99783, 40.73068 ], [ -73.99785, 40.73072 ], [ -73.99786, 40.73076 ], [ -73.99787, 40.7308 ], [ -73.99787, 40.73084 ], [ -73.99786, 40.73087 ], [ -73.99785, 40.73091 ], [ -73.99784, 40.73093 ], [ -73.99783, 40.73095 ], [ -73.9982, 40.73114 ], [ -73.99823, 40.7312 ], [ -73.99826, 40.73122 ], [ -73.99829, 40.7313 ], [ -73.99851, 40.73185 ], [ -73.99859, 40.73205 ], [ -73.9986, 40.73214 ], [ -73.99857, 40.73218 ], [ -73.99862, 40.73221 ], [ -74.00007, 40.73292 ], [ -73.99997, 40.73306 ], [ -73.99989, 40.73316 ], [ -73.99989, 40.73317 ], [ -73.9996, 40.73357 ], [ -73.99953, 40.73366 ], [ -73.99946, 40.73376 ], [ -73.99923, 40.73408 ], [ -73.99919, 40.73413 ], [ -73.99913, 40.73421 ], [ -73.99911, 40.73424 ], [ -73.99872, 40.73478 ], [ -73.99862, 40.73492 ], [ -73.99857, 40.73498 ], [ -73.99854, 40.73503 ], [ -73.99828, 40.73539 ], [ -73.99781, 40.73603 ], [ -73.99768, 40.73621 ], [ -73.99762, 40.73629 ], [ -73.99735, 40.73666 ], [ -73.99686, 40.73734 ], [ -73.99685, 40.73735 ], [ -73.99685, 40.73736 ], [ -73.99684, 40.73737 ], [ -73.99654, 40.73777 ], [ -73.99642, 40.73793 ], [ -73.99641, 40.73795 ], [ -73.99634, 40.73804 ], [ -73.99621, 40.73822 ], [ -73.99588, 40.73868 ], [ -73.99545, 40.73927 ], [ -73.99519, 40.73963 ], [ -73.99502, 40.73986 ], [ -73.9946, 40.74044 ], [ -73.99417, 40.74103 ], [ -73.99403, 40.74121 ], [ -73.99374, 40.74161 ], [ -73.9933, 40.74223 ], [ -73.99283, 40.74287 ], [ -73.99281, 40.7429 ], [ -73.9927, 40.74304 ], [ -73.99232, 40.74356 ], [ -73.99188, 40.74418 ], [ -73.99142, 40.7448 ], [ -73.99104, 40.74532 ], [ -73.99097, 40.74542 ], [ -73.99052, 40.74603 ], [ -73.99014, 40.74655 ], [ -73.99007, 40.74665 ], [ -73.98962, 40.74727 ], [ -73.98916, 40.74789 ], [ -73.98905, 40.74804 ], [ -73.98903, 40.74807 ], [ -73.98871, 40.7485 ], [ -73.98866, 40.74857 ], [ -73.98858, 40.74868 ], [ -73.98832, 40.74904 ], [ -73.98829, 40.74908 ], [ -73.98827, 40.74911 ], [ -73.98823, 40.74916 ], [ -73.9882, 40.74919 ], [ -73.98818, 40.74922 ], [ -73.98789, 40.74962 ], [ -73.98785, 40.74968 ], [ -73.98782, 40.74971 ], [ -73.98782, 40.74972 ], [ -73.98777, 40.74979 ], [ -73.98771, 40.74987 ], [ -73.98742, 40.75028 ], [ -73.98734, 40.75039 ], [ -73.98733, 40.7504 ], [ -73.98729, 40.75045 ], [ -73.98724, 40.75052 ], [ -73.98705, 40.75079 ], [ -73.98704, 40.75079 ], [ -73.98683, 40.75108 ], [ -73.98661, 40.7514 ], [ -73.9864, 40.7517 ], [ -73.98606, 40.75217 ], [ -73.98595, 40.75231 ], [ -73.98549, 40.75293 ], [ -73.98504, 40.75355 ], [ -73.98495, 40.75368 ], [ -73.9846, 40.75417 ], [ -73.98457, 40.75422 ], [ -73.98428, 40.75462 ], [ -73.98413, 40.75483 ], [ -73.98412, 40.75484 ], [ -73.98404, 40.75495 ], [ -73.98363, 40.75551 ], [ -73.98352, 40.75566 ], [ -73.98325, 40.75603 ], [ -73.98317, 40.75614 ], [ -73.98306, 40.7563 ], [ -73.98272, 40.75677 ], [ -73.98289, 40.75684 ] ] } }
]
}
