{
  "trips": [
    {
      "legs": [
        {
          "geometry": {
            "coordinates": [
              [
                -73.99809,
                40.73029
              ],
              [
                -73.99815,
                40.73032
              ],
              [
                -73.9981,
                40.73038
              ],
              [
                -73.99807,
                40.73037
              ],
              [
                -73.99802,
                40.73035
              ],
              [
                -73.99795,
                40.73042
              ],
              [
                -73.99784,
                40.73046
              ],
              [
                -73.99773,
                40.73052
              ],
              [
                -73.99769,
                40.73055
              ],
              [
                -73.99771,
                40.73057
              ],
              [
                -73.99774,
                40.73059
              ],
              [
                -73.99778,
                40.73062
              ],
              [
                -73.9978,
                40.73064
              ],
              [
                -73.99782,
                40.73067
              ],
              [
                -73.99783,
                40.73068
              ],
              [
                -73.99785,
                40.73072
              ],
              [
                -73.99786,
                40.73076
              ],
              [
                -73.99787,
                40.7308
              ],
              [
                -73.99787,
                40.73084
              ],
              [
                -73.99786,
                40.73087
              ],
              [
                -73.99785,
                40.73091
              ],
              [
                -73.99784,
                40.73093
              ],
              [
                -73.99783,
                40.73095
              ],
              [
                -73.9982,
                40.73114
              ],
              [
                -73.99823,
                40.7312
              ],
              [
                -73.99826,
                40.73122
              ],
              [
                -73.99829,
                40.7313
              ],
              [
                -73.99851,
                40.73185
              ],
              [
                -73.99859,
                40.73205
              ],
              [
                -73.9986,
                40.73214
              ],
              [
                -73.99857,
                40.73218
              ],
              [
                -73.99862,
                40.73221
              ],
              [
                -74.00007,
                40.73292
              ],
              [
                -73.99997,
                40.73306
              ],
              [
                -73.99989,
                40.73316
              ],
              [
                -73.99989,
                40.73317
              ],
              [
                -73.9996,
                40.73357
              ],
              [
                -73.99953,
                40.73366
              ],
              [
                -73.99946,
                40.73376
              ],
              [
                -73.99923,
                40.73408
              ],
              [
                -73.99919,
                40.73413
              ],
              [
                -73.99913,
                40.73421
              ],
              [
                -73.99911,
                40.73424
              ],
              [
                -73.99872,
                40.73478
              ],
              [
                -73.99862,
                40.73492
              ],
              [
                -73.99857,
                40.73498
              ],
              [
                -73.99854,
                40.73503
              ],
              [
                -73.99828,
                40.73539
              ],
              [
                -73.99781,
                40.73603
              ],
              [
                -73.99768,
                40.73621
              ],
              [
                -73.99762,
                40.73629
              ],
              [
                -73.99735,
                40.73666
              ],
              [
                -73.99686,
                40.73734
              ],
              [
                -73.99685,
                40.73735
              ],
              [
                -73.99685,
                40.73736
              ],
              [
                -73.99684,
                40.73737
              ],
              [
                -73.99654,
                40.73777
              ],
              [
                -73.99642,
                40.73793
              ],
              [
                -73.99641,
                40.73795
              ]
            ],
            "type": "LineString"
          },
          "mode": "walk",
          "statistics": {
            "distance_km": 1.059264,
            "duration_s": 596,
            "end_time": "2018-11-08T23:09:59.000-05:00",
            "start_time": "2018-11-08T23:00:03.000-05:00"
          }
        },
        {
          "geometry": {
            "coordinates": [
              [
                -73.99641,
                40.73795
              ],
              [
                -73.99634,
                40.73804
              ],
              [
                -73.99587,
                40.73868
              ],
              [
                -73.99544,
                40.73926
              ],
              [
                -73.99518,
                40.73962
              ],
              [
                -73.99518,
                40.73963
              ],
              [
                -73.99502,
                40.73985
              ],
              [
                -73.99459,
                40.74043
              ],
              [
                -73.99416,
                40.74102
              ],
              [
                -73.99403,
                40.74121
              ],
              [
                -73.99403,
                40.74121
              ],
              [
                -73.99374,
                40.74161
              ],
              [
                -73.99329,
                40.74223
              ],
              [
                -73.99281,
                40.74289
              ],
              [
                -73.9927,
                40.74304
              ],
              [
                -73.99269,
                40.74304
              ],
              [
                -73.9923,
                40.74356
              ],
              [
                -73.99186,
                40.74417
              ],
              [
                -73.99142,
                40.7448
              ],
              [
                -73.99104,
                40.74532
              ],
              [
                -73.99104,
                40.74532
              ],
              [
                -73.99097,
                40.74542
              ],
              [
                -73.99052,
                40.74604
              ],
              [
                -73.99015,
                40.74656
              ],
              [
                -73.99015,
                40.74656
              ],
              [
                -73.99007,
                40.74666
              ],
              [
                -73.98962,
                40.74728
              ],
              [
                -73.98917,
                40.74789
              ],
              [
                -73.98906,
                40.74804
              ],
              [
                -73.98872,
                40.7485
              ],
              [
                -73.98826,
                40.74912
              ],
              [
                -73.988,
                40.74949
              ],
              [
                -73.98779,
                40.74978
              ],
              [
                -73.98772,
                40.74987
              ],
              [
                -73.98731,
                40.75044
              ],
              [
                -73.98717,
                40.75064
              ],
              [
                -73.98686,
                40.75106
              ],
              [
                -73.98639,
                40.75169
              ],
              [
                -73.98605,
                40.75217
              ],
              [
                -73.98595,
                40.75231
              ],
              [
                -73.98582,
                40.75248
              ],
              [
                -73.98549,
                40.75293
              ],
              [
                -73.98531,
                40.75318
              ],
              [
                -73.98504,
                40.75354
              ],
              [
                -73.98488,
                40.75376
              ],
              [
                -73.98488,
                40.75376
              ],
              [
                -73.98459,
                40.75416
              ],
              [
                -73.9841,
                40.75484
              ],
              [
                -73.98387,
                40.75514
              ],
              [
                -73.98361,
                40.75549
              ],
              [
                -73.98316,
                40.75613
              ],
              [
                -73.98269,
                40.75676
              ],
              [
                -73.98248,
                40.75706
              ]
            ],
            "type": "LineString"
          },
          "mode": "bus",
          "station_end": {
            "id": "404043",
            "name": "AV OF THE AMERICAS/W 45 ST"
          },
          "station_start": {
            "id": "400726",
            "name": "AV OF THE AMERICAS/W 14 ST"
          },
          "statistics": {
            "distance_km": 2.429066960281362,
            "duration_s": 614,
            "end_time": "2018-11-08T23:20:14.000-05:00",
            "start_time": "2018-11-08T23:10:00.000-05:00"
          },
          "transit_route": "M7"
        },
        {
          "geometry": {
            "coordinates": [
              [
                -73.98249,
                40.75707
              ],
              [
                -73.9823,
                40.75733
              ],
              [
                -73.98226,
                40.75739
              ],
              [
                -73.9824,
                40.75744
              ],
              [
                -73.98297,
                40.75768
              ],
              [
                -73.98498,
                40.75853
              ],
              [
                -73.98509,
                40.75858
              ],
              [
                -73.98514,
                40.7586
              ],
              [
                -73.98522,
                40.75863
              ],
              [
                -73.98533,
                40.75868
              ],
              [
                -73.98524,
                40.75891
              ]
            ],
            "type": "LineString"
          },
          "mode": "walk",
          "statistics": {
            "distance_km": 0.362606,
            "duration_s": 191,
            "end_time": "2018-11-08T23:23:26.000-05:00",
            "start_time": "2018-11-08T23:20:15.000-05:00"
          }
        }
      ],
      "statistics": {
        "distance_km": 3.8509369602813623,
        "duration_s": 1403,
        "end_time": "2018-11-08T23:23:26.000-05:00",
        "start_time": "2018-11-08T23:00:03.000-05:00"
      }
    },
    {
      "legs": [
        {
          "geometry": {
            "coordinates": [
              [
                -73.99809,
                40.73029
              ],
              [
                -73.99815,
                40.73032
              ],
              [
                -73.99879,
                40.73064
              ],
              [
                -73.99885,
                40.73066
              ],
              [
                -73.99892,
                40.7307
              ],
              [
                -73.99955,
                40.73101
              ],
              [
                -73.99961,
                40.73104
              ],
              [
                -73.99968,
                40.73107
              ],
              [
                -73.99972,
                40.73102
              ],
              [
                -74.00075,
                40.73152
              ],
              [
                -74.00078,
                40.73152
              ],
              [
                -74.00091,
                40.73149
              ],
              [
                -74.00096,
                40.73148
              ],
              [
                -74.00126,
                40.73108
              ],
              [
                -74.0013,
                40.731
              ],
              [
                -74.00133,
                40.73096
              ],
              [
                -74.00138,
                40.73087
              ]
            ],
            "type": "LineString"
          },
          "mode": "walk",
          "statistics": {
            "distance_km": 0.364439,
            "duration_s": 202,
            "end_time": "2018-11-08T23:14:53.000-05:00",
            "start_time": "2018-11-08T23:11:31.000-05:00"
          }
        },
        {
          "geometry": {
            "coordinates": [
              [
                -74.0015,
                40.73091
              ],
              [
                -74.0015,
                40.73091
              ],
              [
                -74.00142,
                40.73105
              ],
              [
                -74.00096,
                40.73169
              ],
              [
                -74.00071,
                40.73203
              ],
              [
                -74.00051,
                40.7323
              ],
              [
                -74.00048,
                40.73235
              ],
              [
                -74.00024,
                40.73268
              ],
              [
                -74.00006,
                40.73292
              ],
              [
                -73.99997,
                40.73305
              ],
              [
                -73.99996,
                40.73305
              ],
              [
                -73.9999,
                40.73314
              ],
              [
                -73.99953,
                40.73363
              ],
              [
                -73.99914,
                40.73417
              ],
              [
                -73.99871,
                40.73478
              ],
              [
                -73.99861,
                40.73492
              ],
              [
                -73.99855,
                40.73501
              ],
              [
                -73.99827,
                40.73538
              ],
              [
                -73.99781,
                40.73602
              ],
              [
                -73.99777,
                40.73608
              ],
              [
                -73.99768,
                40.73621
              ],
              [
                -73.99768,
                40.73621
              ],
              [
                -73.99641,
                40.73795
              ],
              [
                -73.99634,
                40.73804
              ],
              [
                -73.99587,
                40.73868
              ],
              [
                -73.99544,
                40.73926
              ],
              [
                -73.99518,
                40.73962
              ],
              [
                -73.99518,
                40.73963
              ],
              [
                -73.99502,
                40.73985
              ],
              [
                -73.99459,
                40.74043
              ],
              [
                -73.99416,
                40.74102
              ],
              [
                -73.99403,
                40.74121
              ],
              [
                -73.99403,
                40.74121
              ],
              [
                -73.99374,
                40.74161
              ],
              [
                -73.99329,
                40.74223
              ],
              [
                -73.99281,
                40.74289
              ],
              [
                -73.9927,
                40.74304
              ],
              [
                -73.99269,
                40.74304
              ],
              [
                -73.9923,
                40.74356
              ],
              [
                -73.99186,
                40.74417
              ],
              [
                -73.99142,
                40.7448
              ],
              [
                -73.99104,
                40.74532
              ],
              [
                -73.99104,
                40.74532
              ],
              [
                -73.99097,
                40.74542
              ],
              [
                -73.99052,
                40.74604
              ],
              [
                -73.99015,
                40.74656
              ],
              [
                -73.99015,
                40.74656
              ],
              [
                -73.99007,
                40.74666
              ],
              [
                -73.98962,
                40.74728
              ],
              [
                -73.98917,
                40.74789
              ],
              [
                -73.98906,
                40.74804
              ],
              [
                -73.98872,
                40.7485
              ],
              [
                -73.98826,
                40.74912
              ],
              [
                -73.988,
                40.74949
              ],
              [
                -73.98779,
                40.74978
              ],
              [
                -73.98772,
                40.74987
              ],
              [
                -73.98731,
                40.75044
              ],
              [
                -73.98717,
                40.75064
              ],
              [
                -73.98686,
                40.75106
              ],
              [
                -73.98639,
                40.75169
              ],
              [
                -73.98605,
                40.75217
              ],
              [
                -73.98595,
                40.75231
              ],
              [
                -73.98582,
                40.75248
              ],
              [
                -73.98549,
                40.75293
              ],
              [
                -73.98531,
                40.75318
              ],
              [
                -73.98504,
                40.75354
              ],
              [
                -73.98488,
                40.75376
              ],
              [
                -73.98488,
                40.75376
              ],
              [
                -73.98459,
                40.75416
              ],
              [
                -73.9841,
                40.75484
              ],
              [
                -73.98387,
                40.75514
              ],
              [
                -73.98361,
                40.75549
              ],
              [
                -73.98316,
                40.75613
              ],
              [
                -73.98296,
                40.75604
              ]
            ],
            "type": "LineString"
          },
          "mode": "bus",
          "station_end": {
            "id": "803081",
            "name": "W 44 St/6 AV"
          },
          "station_start": {
            "id": "400722",
            "name": "AV OF THE AMERICAS/W 3 ST"
          },
          "statistics": {
            "distance_km": 3.1946885175773745,
            "duration_s": 906,
            "end_time": "2018-11-08T23:30:00.000-05:00",
            "start_time": "2018-11-08T23:14:54.000-05:00"
          },
          "transit_route": "M55"
        },
        {
          "geometry": {
            "coordinates": [
              [
                -73.98295,
                40.75605
              ],
              [
                -73.98304,
                40.75608
              ],
              [
                -73.98317,
                40.75614
              ],
              [
                -73.9833,
                40.75619
              ],
              [
                -73.98583,
                40.75725
              ],
              [
                -73.98549,
                40.75779
              ],
              [
                -73.98544,
                40.75786
              ],
              [
                -73.98541,
                40.7579
              ],
              [
                -73.98536,
                40.75798
              ],
              [
                -73.98549,
                40.75803
              ],
              [
                -73.98551,
                40.75804
              ],
              [
                -73.98554,
                40.75808
              ],
              [
                -73.98533,
                40.75868
              ],
              [
                -73.98524,
                40.75891
              ]
            ],
            "type": "LineString"
          },
          "mode": "walk",
          "statistics": {
            "distance_km": 0.48156200000000005,
            "duration_s": 256,
            "end_time": "2018-11-08T23:34:17.000-05:00",
            "start_time": "2018-11-08T23:30:01.000-05:00"
          }
        }
      ],
      "statistics": {
        "distance_km": 4.040689517577374,
        "duration_s": 1366,
        "end_time": "2018-11-08T23:34:17.000-05:00",
        "start_time": "2018-11-08T23:11:31.000-05:00"
      }
    },
    {
      "legs": [
        {
          "geometry": {
            "coordinates": [
              [
                -73.99809,
                40.73029
              ],
              [
                -73.99815,
                40.73032
              ],
              [
                -73.99879,
                40.73064
              ],
              [
                -73.99885,
                40.73066
              ],
              [
                -73.99892,
                40.7307
              ],
              [
                -73.99955,
                40.73101
              ],
              [
                -73.99961,
                40.73104
              ],
              [
                -73.99968,
                40.73107
              ],
              [
                -73.99972,
                40.73102
              ],
              [
                -74.00075,
                40.73152
              ],
              [
                -74.00078,
                40.73152
              ],
              [
                -74.00091,
                40.73149
              ],
              [
                -74.00096,
                40.73148
              ],
              [
                -74.00126,
                40.73108
              ],
              [
                -74.0013,
                40.731
              ],
              [
                -74.00133,
                40.73096
              ],
              [
                -74.00138,
                40.73087
              ]
            ],
            "type": "LineString"
          },
          "mode": "walk",
          "statistics": {
            "distance_km": 0.364439,
            "duration_s": 202,
            "end_time": "2018-11-08T23:29:53.000-05:00",
            "start_time": "2018-11-08T23:26:31.000-05:00"
          }
        },
        {
          "geometry": {
            "coordinates": [
              [
                -74.0015,
                40.73091
              ],
              [
                -74.0015,
                40.73091
              ],
              [
                -74.00142,
                40.73105
              ],
              [
                -74.00096,
                40.73169
              ],
              [
                -74.00071,
                40.73203
              ],
              [
                -74.00051,
                40.7323
              ],
              [
                -74.00048,
                40.73235
              ],
              [
                -74.00024,
                40.73268
              ],
              [
                -74.00006,
                40.73292
              ],
              [
                -73.99997,
                40.73305
              ],
              [
                -73.99996,
                40.73305
              ],
              [
                -73.9999,
                40.73314
              ],
              [
                -73.99953,
                40.73363
              ],
              [
                -73.99914,
                40.73417
              ],
              [
                -73.99871,
                40.73478
              ],
              [
                -73.99861,
                40.73492
              ],
              [
                -73.99855,
                40.73501
              ],
              [
                -73.99827,
                40.73538
              ],
              [
                -73.99781,
                40.73602
              ],
              [
                -73.99777,
                40.73608
              ],
              [
                -73.99768,
                40.73621
              ],
              [
                -73.99768,
                40.73621
              ],
              [
                -73.99641,
                40.73795
              ],
              [
                -73.99634,
                40.73804
              ],
              [
                -73.99587,
                40.73868
              ],
              [
                -73.99544,
                40.73926
              ],
              [
                -73.99518,
                40.73962
              ],
              [
                -73.99518,
                40.73963
              ],
              [
                -73.99502,
                40.73985
              ],
              [
                -73.99459,
                40.74043
              ],
              [
                -73.99416,
                40.74102
              ],
              [
                -73.99403,
                40.74121
              ],
              [
                -73.99403,
                40.74121
              ],
              [
                -73.99374,
                40.74161
              ],
              [
                -73.99329,
                40.74223
              ],
              [
                -73.99281,
                40.74289
              ],
              [
                -73.9927,
                40.74304
              ],
              [
                -73.99269,
                40.74304
              ],
              [
                -73.9923,
                40.74356
              ],
              [
                -73.99186,
                40.74417
              ],
              [
                -73.99142,
                40.7448
              ],
              [
                -73.99104,
                40.74532
              ],
              [
                -73.99104,
                40.74532
              ],
              [
                -73.99097,
                40.74542
              ],
              [
                -73.99052,
                40.74604
              ],
              [
                -73.99015,
                40.74656
              ],
              [
                -73.99015,
                40.74656
              ],
              [
                -73.99007,
                40.74666
              ],
              [
                -73.98962,
                40.74728
              ],
              [
                -73.98917,
                40.74789
              ],
              [
                -73.98906,
                40.74804
              ],
              [
                -73.98872,
                40.7485
              ],
              [
                -73.98826,
                40.74912
              ],
              [
                -73.988,
                40.74949
              ],
              [
                -73.98779,
                40.74978
              ],
              [
                -73.98772,
                40.74987
              ],
              [
                -73.98731,
                40.75044
              ],
              [
                -73.98717,
                40.75064
              ],
              [
                -73.98686,
                40.75106
              ],
              [
                -73.98639,
                40.75169
              ],
              [
                -73.98605,
                40.75217
              ],
              [
                -73.98595,
                40.75231
              ],
              [
                -73.98582,
                40.75248
              ],
              [
                -73.98549,
                40.75293
              ],
              [
                -73.98531,
                40.75318
              ],
              [
                -73.98504,
                40.75354
              ],
              [
                -73.98488,
                40.75376
              ],
              [
                -73.98488,
                40.75376
              ],
              [
                -73.98459,
                40.75416
              ],
              [
                -73.9841,
                40.75484
              ],
              [
                -73.98387,
                40.75514
              ],
              [
                -73.98361,
                40.75549
              ],
              [
                -73.98316,
                40.75613
              ],
              [
                -73.98296,
                40.75604
              ]
            ],
            "type": "LineString"
          },
          "mode": "bus",
          "station_end": {
            "id": "803081",
            "name": "W 44 St/6 AV"
          },
          "station_start": {
            "id": "400722",
            "name": "AV OF THE AMERICAS/W 3 ST"
          },
          "statistics": {
            "distance_km": 3.1946885175773745,
            "duration_s": 726,
            "end_time": "2018-11-08T23:42:00.000-05:00",
            "start_time": "2018-11-08T23:29:54.000-05:00"
          },
          "transit_route": "M55"
        },
        {
          "geometry": {
            "coordinates": [
              [
                -73.98295,
                40.75605
              ],
              [
                -73.98304,
                40.75608
              ],
              [
                -73.98317,
                40.75614
              ],
              [
                -73.9833,
                40.75619
              ],
              [
                -73.98583,
                40.75725
              ],
              [
                -73.98549,
                40.75779
              ],
              [
                -73.98544,
                40.75786
              ],
              [
                -73.98541,
                40.7579
              ],
              [
                -73.98536,
                40.75798
              ],
              [
                -73.98549,
                40.75803
              ],
              [
                -73.98551,
                40.75804
              ],
              [
                -73.98554,
                40.75808
              ],
              [
                -73.98533,
                40.75868
              ],
              [
                -73.98524,
                40.75891
              ]
            ],
            "type": "LineString"
          },
          "mode": "walk",
          "statistics": {
            "distance_km": 0.48156200000000005,
            "duration_s": 256,
            "end_time": "2018-11-08T23:46:17.000-05:00",
            "start_time": "2018-11-08T23:42:01.000-05:00"
          }
        }
      ],
      "statistics": {
        "distance_km": 4.040689517577374,
        "duration_s": 1186,
        "end_time": "2018-11-08T23:46:17.000-05:00",
        "start_time": "2018-11-08T23:26:31.000-05:00"
      }
    }
  ]
}